<svg xmlns="http://www.w3.org/2000/svg">
   <symbol id="add-plus" viewBox="0 0 357 357">
      <path d="M357,204H204v153h-51V204H0v-51h153V0h51v153h153V204z"/>
   </symbol>
   <symbol id="close" viewBox="0 0 455.992 455.992">
      <path style="fill:#EBEBEB;" d="M227.996,0C102.081,0,0,102.081,0,227.996c0,125.945,102.081,227.996,227.996,227.996
        c125.945,0,227.996-102.051,227.996-227.996C455.992,102.081,353.941,0,227.996,0z M227.996,425.593
        c-108.952,0-197.597-88.645-197.597-197.597S119.044,30.399,227.996,30.399s197.597,88.645,197.597,197.597
        S336.948,425.593,227.996,425.593z"/>
      <path d="M312.142,122.358l-83.538,83.568l-74.965-83.568c-5.928-5.928-15.565-5.928-21.492,0
        c-5.928,5.928-5.928,15.565,0,21.492l74.965,83.568l-84.723,84.723c-5.928,5.928-5.928,15.595,0,21.492
        c5.928,5.928,15.565,5.928,21.492,0l83.568-83.538l74.965,83.538c5.897,5.928,15.565,5.928,21.462,0
        c5.928-5.898,5.928-15.565,0-21.492l-74.995-83.538l84.723-84.754c5.928-5.928,5.928-15.565,0-21.492
        C327.676,116.43,318.07,116.43,312.142,122.358z"/>
   </symbol>
   <symbol id="cancel" viewBox="0 0 21.9 21.9">
     <path d="M14.1,11.3c-0.2-0.2-0.2-0.5,0-0.7l7.5-7.5c0.2-0.2,0.3-0.5,0.3-0.7s-0.1-0.5-0.3-0.7l-1.4-1.4C20,0.1,19.7,0,19.5,0  c-0.3,0-0.5,0.1-0.7,0.3l-7.5,7.5c-0.2,0.2-0.5,0.2-0.7,0L3.1,0.3C2.9,0.1,2.6,0,2.4,0S1.9,0.1,1.7,0.3L0.3,1.7C0.1,1.9,0,2.2,0,2.4  s0.1,0.5,0.3,0.7l7.5,7.5c0.2,0.2,0.2,0.5,0,0.7l-7.5,7.5C0.1,19,0,19.3,0,19.5s0.1,0.5,0.3,0.7l1.4,1.4c0.2,0.2,0.5,0.3,0.7,0.3  s0.5-0.1,0.7-0.3l7.5-7.5c0.2-0.2,0.5-0.2,0.7,0l7.5,7.5c0.2,0.2,0.5,0.3,0.7,0.3s0.5-0.1,0.7-0.3l1.4-1.4c0.2-0.2,0.3-0.5,0.3-0.7  s-0.1-0.5-0.3-0.7L14.1,11.3z"/>
   </symbol>
   <symbol id="pencil" viewBox="0 0 32 32">
     <path d="M 23.90625 3.96875 C 22.859375 3.96875 21.8125 4.375 21 5.1875 L 5.1875 21 L 5.125 21.3125 L 4.03125 26.8125 L 3.71875 28.28125 L 5.1875 27.96875 L 10.6875 26.875 L 11 26.8125 L 26.8125 11 C 28.4375 9.375 28.4375 6.8125 26.8125 5.1875 C 26 4.375 24.953125 3.96875 23.90625 3.96875 Z M 23.90625 5.875 C 24.410156 5.875 24.917969 6.105469 25.40625 6.59375 C 26.378906 7.566406 26.378906 8.621094 25.40625 9.59375 L 24.6875 10.28125 L 21.71875 7.3125 L 22.40625 6.59375 C 22.894531 6.105469 23.402344 5.875 23.90625 5.875 Z M 20.3125 8.71875 L 23.28125 11.6875 L 11.1875 23.78125 C 10.53125 22.5 9.5 21.46875 8.21875 20.8125 Z M 6.9375 22.4375 C 8.136719 22.921875 9.078125 23.863281 9.5625 25.0625 L 6.28125 25.71875 Z "/>
   </symbol>
   <symbol id="checked" viewBox="0 0 70 70">
     <path d="M26.474,70c-2.176,0-4.234-1.018-5.557-2.764L3.049,43.639C0.725,40.57,1.33,36.2,4.399,33.875
       c3.074-2.326,7.441-1.717,9.766,1.35l11.752,15.518L55.474,3.285c2.035-3.265,6.332-4.264,9.604-2.232
       c3.268,2.034,4.266,6.334,2.23,9.602l-34.916,56.06c-1.213,1.949-3.307,3.175-5.6,3.279C26.685,69.998,26.58,70,26.474,70z"/>
   </symbol>
   <symbol id="toggle" viewBox="0 0 341.333 341.333">
     <g>
     	<g>
     		<g>
     			<rect x="128" y="128" width="85.333" height="85.333"/>
     			<rect x="0" y="0" width="85.333" height="85.333"/>
     			<rect x="128" y="256" width="85.333" height="85.333"/>
     			<rect x="0" y="128" width="85.333" height="85.333"/>
     			<rect x="0" y="256" width="85.333" height="85.333"/>
     			<rect x="256" y="0" width="85.333" height="85.333"/>
     			<rect x="128" y="0" width="85.333" height="85.333"/>
     			<rect x="256" y="128" width="85.333" height="85.333"/>
     			<rect x="256" y="256" width="85.333" height="85.333"/>
     		</g>
     	</g>
     </g>
   </symbol>
</svg>
